<?xml version="1.0" encoding="utf-8"?>
<!-- Generator: Adobe Illustrator 25.1.0, SVG Export Plug-In . SVG Version: 6.00 Build 0)  -->
<svg version="1.1" id="Layer_1" xmlns="http://www.w3.org/2000/svg" xmlns:xlink="http://www.w3.org/1999/xlink" x="0px" y="0px"
	 viewBox="0 0 512 351.1" style="enable-background:new 0 0 512 351.1;" xml:space="preserve">
<style type="text/css">
	.st0{fill:#D5D6DF;}
</style>
<g>
	<g>
		<path class="st0" d="M494.9,104.4h-34c-0.6-1.1-1.3-2.1-2.1-3l-31.6-35.3c-3.2-3.6-7.9-5.7-12.8-5.7h-65.8c-6.8,0-13,4-15.7,10.3
			l-44.5,101.6h-40.5L233,34.3h5.6c9.5,0,17.1-7.7,17.1-17.1S248.1,0,238.6,0h-24.7c0,0,0,0-0.1,0H34.3c-9.5,0-17.1,7.7-17.1,17.1
			s7.7,17.1,17.1,17.1h7.5v105.2c-2.3-1.1-4.8-1.8-7.5-1.8c-9.5,0-17.1,7.7-17.1,17.1v58.4c0,7.8,5.2,14.3,12.2,16.4
			C11.7,241.6,0,261.8,0,284.8c0,36.6,29.8,66.4,66.4,66.4h290.9c36.6,0,66.4-29.8,66.4-66.4c0-36.6-29.8-66.4-66.4-66.4H252.8
			l-1.3-11.9h48.1c6.8,0,13-4,15.7-10.3l44.5-101.6h46.9l8.9,10c-8.2,1.2-14.6,8.3-14.6,16.9V171c0,7,4.3,13.3,10.8,15.9
			c25.7,10.2,46,29.7,57.3,54.9l10.1,22.4c2.8,6.3,9,10.1,15.6,10.1c1.2,0,2.4-0.1,3.6-0.4c7.9-1.7,13.5-8.7,13.5-16.8V121.6
			C512,112.1,504.3,104.4,494.9,104.4z M130.6,34.3h68l11.1,103.4h-79.1V34.3z M76.1,34.3h20.3v103.4H76.1V34.3z M76.1,172h135.7
			c0.5,0,1,0,1.5-0.1l5,46.5H76.1V172z M357.3,252.7c17.7,0,32.1,14.4,32.1,32.1s-14.4,32.1-32.1,32.1H66.4
			c-17.7,0-32.1-14.4-32.1-32.1s14.4-32.1,32.1-32.1H357.3z M477.7,192.5c-11.8-13.4-26.2-24.5-42.4-32.5v-21.2h42.4V192.5z"/>
	</g>
</g>
<g>
	<g>
		<circle class="st0" cx="70.3" cy="284.8" r="16.4"/>
	</g>
</g>
<g>
	<g>
		<circle class="st0" cx="355.5" cy="284.8" r="16.4"/>
	</g>
</g>
</svg>
