

{
	"sProcessing":   "Espere...",
	"sLengthMenu":   "Mostrar entradas de _MENU_",
	"sZeroRecords":  "No entrar.",
	"sInfo":         "Publicaciones de _START_ a _END_ de _TOTAL_ publicaciones",
	"sInfoEmpty":    "Registros de 0 a 0 de 0 registros",
	"sInfoFiltered": "(filtrado de _MAX_ registros)",
	"sInfoPostFix":  "",
	"sSearch":       "Buscar:",
	"sUrl":          "",
	"oPaginate": {
		"sFirst": "Primero",
		"sPrevious": "Anterior",
		"sNext": "Próximo",
		"sLast": "Último"
	},
	"oAria": {
		"sSortAscending":  ": activar para ordenar la columna ascendente",
		"sSortDescending": ": activar para ordenar columnas descendentes"
	}
}
